<?xml version="1.0" encoding="UTF-8" standalone="no"?>
<svg width="87px" height="114px" viewBox="0 0 87 114" version="1.1" xmlns="http://www.w3.org/2000/svg" xmlns:xlink="http://www.w3.org/1999/xlink" xmlns:sketch="http://www.bohemiancoding.com/sketch/ns">
    <!-- Generator: Sketch 3.3.3 (12072) - http://www.bohemiancoding.com/sketch -->
    <title>Group</title>
    <desc>Created with Sketch.</desc>
    <defs>
        <linearGradient x1="50%" y1="0%" x2="50%" y2="100%" id="linearGradient-1">
            <stop stop-color="#FF9500" offset="0%"></stop>
            <stop stop-color="#FF5E3A" offset="100%"></stop>
        </linearGradient>
    </defs>
    <g id="Page-1" stroke="none" stroke-width="1" fill="none" fill-rule="evenodd" sketch:type="MSPage">
        <g id="App-Icons" sketch:type="MSArtboardGroup" transform="translate(-33.000000, -261.000000)" fill="url(#linearGradient-1)">
            <g id="Group" sketch:type="MSLayerGroup" transform="translate(33.000000, 261.000000)">
                <rect id="Rectangle-path" sketch:type="MSShapeGroup" x="24.0609375" y="61.8857143" width="4.078125" height="29.0428571"></rect>
                <rect id="Rectangle-path" sketch:type="MSShapeGroup" x="37.3828125" y="61.8857143" width="4.078125" height="29.0428571"></rect>
                <rect id="Rectangle-path" sketch:type="MSShapeGroup" x="50.56875" y="61.8857143" width="4.078125" height="29.0428571"></rect>
                <path d="M82.921875,46.9571429 L69.1921875,46.9571429 L69.1921875,43.8357143 C74.9015625,40.9857143 78.7078125,35.15 78.7078125,28.5 C78.7078125,20.0857143 72.7265625,13.0285714 64.70625,11.5357143 C63.61875,5.02142857 58.0453125,0 51.2484375,0 C46.8984375,0 42.95625,1.9 40.509375,5.29285714 C37.9265625,3.12142857 34.8,1.9 31.265625,1.9 C25.0125,1.9 19.7109375,5.97142857 17.8078125,11.6714286 L16.85625,11.6714286 C7.6125,11.6714286 0,19.1357143 0,28.5 C0,35.15 3.9421875,40.85 9.515625,43.5642857 L9.515625,113.728571 L69.1921875,113.728571 L69.1921875,95.95 L82.921875,95.95 L87,95.95 L87,91.8785714 L87,51.1642857 L87,47.0928571 L82.921875,47.0928571 L82.921875,46.9571429 Z M69.1921875,58.9 L75.0375,58.9 L75.0375,84.1428571 L69.1921875,84.1428571 L69.1921875,58.9 L69.1921875,58.9 Z M4.078125,28.6357143 C4.078125,21.5785714 9.7875,15.8785714 16.85625,15.8785714 C17.5359375,15.8785714 18.215625,15.8785714 19.03125,16.0142857 C19.575,16.15 20.11875,16.0142857 20.5265625,15.6071429 C20.934375,15.2 21.20625,14.7928571 21.3421875,14.25 C22.1578125,9.36428571 26.2359375,5.97142857 31.1296875,5.97142857 C34.25625,5.97142857 37.1109375,7.46428571 39.0140625,9.90714286 C39.421875,10.45 40.1015625,10.7214286 40.78125,10.7214286 C41.4609375,10.5857143 42.140625,10.1785714 42.4125,9.63571429 C44.04375,6.24285714 47.30625,4.20714286 51.1125,4.20714286 C56.278125,4.20714286 60.4921875,8.27857143 60.7640625,13.4357143 C60.7640625,14.5214286 61.5796875,15.3357143 62.6671875,15.3357143 C69.4640625,15.8785714 74.6296875,21.7142857 74.6296875,28.3642857 C74.6296875,35.5571429 68.784375,41.5285714 61.44375,41.5285714 C59.6765625,41.5285714 57.909375,41.1214286 56.1421875,40.4428571 C55.4625,40.1714286 54.7828125,40.1714286 54.2390625,40.5785714 C53.6953125,40.9857143 53.2875,41.6642857 53.2875,42.3428571 L53.2875,49.6714286 C53.2875,52.1142857 51.384375,54.0142857 48.9375,54.0142857 C46.490625,54.0142857 44.5875,52.1142857 44.5875,49.6714286 L44.5875,44.3785714 C44.5875,43.7 44.315625,43.1571429 43.771875,42.75 C43.3640625,42.4785714 42.95625,42.3428571 42.5484375,42.3428571 C42.4125,42.3428571 42.140625,42.3428571 42.0046875,42.4785714 C41.053125,42.75 40.2375,42.8857143 39.2859375,42.8857143 C35.34375,42.8857143 31.809375,40.7142857 30.0421875,37.05 C29.7703125,36.3714286 29.090625,35.9642857 28.4109375,35.9642857 C27.73125,35.8285714 27.0515625,36.1 26.64375,36.6428571 C24.196875,39.6285714 20.6625,41.2571429 16.85625,41.2571429 C9.7875,41.2571429 4.078125,35.5571429 4.078125,28.6357143 L4.078125,28.6357143 Z M16.85625,45.3285714 C20.934375,45.3285714 24.8765625,43.8357143 27.8671875,41.2571429 C30.5859375,44.7857143 34.8,46.9571429 39.2859375,46.9571429 L40.509375,46.9571429 L40.509375,49.8071429 C40.509375,54.4214286 44.315625,58.2214286 48.9375,58.2214286 C53.559375,58.2214286 57.365625,54.4214286 57.365625,49.8071429 L57.365625,45.3285714 C58.725,45.6 60.084375,45.8714286 61.44375,45.8714286 C62.6671875,45.8714286 63.890625,45.7357143 65.1140625,45.4642857 L65.1140625,99.3428571 L13.59375,99.3428571 L13.59375,45.0571429 C14.68125,45.1928571 15.76875,45.3285714 16.85625,45.3285714 L16.85625,45.3285714 Z M13.59375,109.792857 L13.59375,103.278571 L65.1140625,103.278571 L65.1140625,109.792857 L13.59375,109.792857 L13.59375,109.792857 Z M82.921875,91.8785714 L69.1921875,91.8785714 L69.1921875,88.2142857 L79.115625,88.2142857 L79.115625,54.8285714 L69.1921875,54.8285714 L69.1921875,51.1642857 L82.921875,51.1642857 L82.921875,91.8785714 L82.921875,91.8785714 Z" id="Shape" sketch:type="MSShapeGroup"></path>
            </g>
        </g>
    </g>
</svg>