<?xml version="1.0" encoding="UTF-8" standalone="no"?>
<svg width="91px" height="111px" viewBox="0 0 91 111" version="1.1" xmlns="http://www.w3.org/2000/svg" xmlns:xlink="http://www.w3.org/1999/xlink" xmlns:sketch="http://www.bohemiancoding.com/sketch/ns">
    <!-- Generator: Sketch 3.3.3 (12072) - http://www.bohemiancoding.com/sketch -->
    <title>pizza</title>
    <desc>Created with Sketch.</desc>
    <defs>
        <linearGradient x1="50%" y1="0%" x2="50%" y2="100%" id="linearGradient-1">
            <stop stop-color="#FB2B69" offset="0%"></stop>
            <stop stop-color="#FF5B37" offset="100%"></stop>
        </linearGradient>
    </defs>
    <g id="Page-1" stroke="none" stroke-width="1" fill="none" fill-rule="evenodd" sketch:type="MSPage">
        <g id="App-Icons" sketch:type="MSArtboardGroup" transform="translate(-216.000000, -279.000000)" stroke="url(#linearGradient-1)" stroke-width="4">
            <g id="pizza" sketch:type="MSLayerGroup" transform="translate(261.500000, 334.500000) scale(1, -1) translate(-261.500000, -334.500000) translate(218.000000, 281.000000)">
                <path d="M43.5,0 L87,87 C87,87 77.0742188,106.140625 43.5,106.140625 C9.92578125,106.140625 0,87 0,87 L43.5,0 Z" id="Triangle-33" stroke-linecap="round" stroke-linejoin="round" sketch:type="MSShapeGroup"></path>
                <path d="M43.5,0 L80.7948624,74.5897247 C80.7948624,74.5897247 72.2849625,91 43.5,91 C14.7150375,91 6.20513764,74.5897247 6.20513764,74.5897247 L43.5,0 Z" id="Triangle-33-Copy" stroke-linecap="round" stroke-linejoin="round" sketch:type="MSShapeGroup"></path>
                <circle id="Oval-43" sketch:type="MSShapeGroup" cx="32.5" cy="68.5" r="10.5"></circle>
                <circle id="Oval-43-Copy" sketch:type="MSShapeGroup" cx="46.5" cy="42.5" r="10.5"></circle>
            </g>
        </g>
    </g>
</svg>