<?xml version="1.0" encoding="UTF-8" standalone="no"?>
<svg width="142px" height="174px" viewBox="0 0 142 174" version="1.1" xmlns="http://www.w3.org/2000/svg" xmlns:xlink="http://www.w3.org/1999/xlink" xmlns:sketch="http://www.bohemiancoding.com/sketch/ns">
    <!-- Generator: Sketch 3.3.3 (12072) - http://www.bohemiancoding.com/sketch -->
    <title>Shape</title>
    <desc>Created with Sketch.</desc>
    <defs>
        <linearGradient x1="49.9828508%" y1="100.804927%" x2="49.9828508%" y2="-0.847249666%" id="linearGradient-1">
            <stop stop-color="#FF5E3A" offset="0%"></stop>
            <stop stop-color="#FF9500" offset="100%"></stop>
        </linearGradient>
    </defs>
    <g id="Page-1" stroke="none" stroke-width="1" fill="none" fill-rule="evenodd" sketch:type="MSPage">
        <g id="Group" sketch:type="MSLayerGroup" transform="translate(4.000000, 3.000000)" stroke-width="6.5" stroke="url(#linearGradient-1)">
            <g id="Layer_2" sketch:type="MSShapeGroup">
                <path d="M3,162.8 C1.3,162.8 0,90.3 0,0.8 M0.8,109.3 C0.8,127.5 26.8,142.3 67,142.3 M131.7,162.8 C133.4,162.8 134.7,90.3 134.7,0.8 M67,142.3 C107.2,142.3 133.9,127.5 133.9,109.3 M3,162.8 C3,162.8 62,172.8 131.7,162.8 M0,0.8 L134.7,0.8 M134.7,74.8 L0.4,74.8 M59.7,62.8 L53.5,94.1 L67.1,96.8 M67.1,96.8 L115.3,106.4 L125.3,56.1 L63.5,43.8 L59.7,62.9 M59.7,62.8 L57,55.8 L8.8,74 L23.6,113.2 L67.1,96.8" id="Shape"></path>
            </g>
        </g>
    </g>
</svg>