<?xml version="1.0" encoding="UTF-8" standalone="no"?>
<svg width="114px" height="246px" viewBox="0 0 114 246" version="1.1" xmlns="http://www.w3.org/2000/svg" xmlns:xlink="http://www.w3.org/1999/xlink" xmlns:sketch="http://www.bohemiancoding.com/sketch/ns">
    <!-- Generator: Sketch 3.3.3 (12072) - http://www.bohemiancoding.com/sketch -->
    <title>Shape</title>
    <desc>Created with Sketch.</desc>
    <defs>
        <linearGradient x1="50.0276803%" y1="100.577731%" x2="50.0276803%" y2="-0.577731092%" id="linearGradient-1">
            <stop stop-color="#FF5E3A" offset="0%"></stop>
            <stop stop-color="#FF9500" offset="100%"></stop>
        </linearGradient>
    </defs>
    <g id="Page-1" stroke="none" stroke-width="1" fill="none" fill-rule="evenodd" sketch:type="MSPage">
        <g id="Group" sketch:type="MSLayerGroup" transform="translate(4.000000, 4.000000)" stroke-width="8" stroke="url(#linearGradient-1)">
            <g id="Layer_2" sketch:type="MSShapeGroup">
                <path d="M45.1,147 C12.6,114 -16.9,120 12.6,0 M45.1,223.5 C50.1,210.3 50.7,152.5 45.1,147 M12.6,238 C30.6,238 42.1,230.8 45.1,223.5 M61.3,147 C93.8,114 123.3,120 93.8,0 M61.3,147 C55.7,152.5 56.3,210.2 61.3,223.5 M61.3,223.5 C64.3,230.7 75.8,238 93.8,238 M12.6,0 L93.8,0 M12.6,238 L93.8,238 M0.7,84 L105.9,84" id="Shape"></path>
            </g>
        </g>
    </g>
</svg>